{
  "images" : [
    {
      "idiom" : "universal",
      "filename" : "A162C55B-23D4-4325-A549-DAF2A2A5F44B@1x.png",
      "scale" : "1x"
    },
    {
      "idiom" : "universal",
      "filename" : "A162C55B-23D4-4325-A549-DAF2A2A5F44B@2x.png",
      "scale" : "2x"
    },
    {
      "idiom" : "universal",
      "filename" : "A162C55B-23D4-4325-A549-DAF2A2A5F44B@3x.png",
      "scale" : "3x"
    }
  ],
  "info" : {
    "version" : 1,
    "author" : "xcode"
  }
}