{
  "images" : [
    {
      "idiom" : "universal",
      "filename" : "2290B294-C610-4525-9F90-50C0A552AA78@1x.png",
      "scale" : "1x"
    },
    {
      "idiom" : "universal",
      "filename" : "2290B294-C610-4525-9F90-50C0A552AA78@2x.png",
      "scale" : "2x"
    },
    {
      "idiom" : "universal",
      "filename" : "2290B294-C610-4525-9F90-50C0A552AA78@3x.png",
      "scale" : "3x"
    }
  ],
  "info" : {
    "version" : 1,
    "author" : "xcode"
  }
}