{
  "images" : [
    {
      "idiom" : "universal",
      "filename" : "6407600A-4198-41BE-96A2-229B7E5D407E@1x.png",
      "scale" : "1x"
    },
    {
      "idiom" : "universal",
      "filename" : "6407600A-4198-41BE-96A2-229B7E5D407E@2x.png",
      "scale" : "2x"
    },
    {
      "idiom" : "universal",
      "filename" : "6407600A-4198-41BE-96A2-229B7E5D407E@3x.png",
      "scale" : "3x"
    }
  ],
  "info" : {
    "version" : 1,
    "author" : "xcode"
  }
}