{
  "images" : [
    {
      "idiom" : "universal",
      "filename" : "A1AF9873-FF3C-41DA-8CA9-7D388B3A3DBE@1x.png",
      "scale" : "1x"
    },
    {
      "idiom" : "universal",
      "filename" : "A1AF9873-FF3C-41DA-8CA9-7D388B3A3DBE@2x.png",
      "scale" : "2x"
    },
    {
      "idiom" : "universal",
      "filename" : "A1AF9873-FF3C-41DA-8CA9-7D388B3A3DBE@3x.png",
      "scale" : "3x"
    }
  ],
  "info" : {
    "version" : 1,
    "author" : "xcode"
  }
}